"AA1" "A2a"
"1" "ann_gm.ts_Amon_ACCESS1-0.rcp45" "251"
"2" "ann_gm.ts_Amon_ACCESS1-0.rcp85" "251"
"3" "ann_gm.ts_Amon_ACCESS1-3.rcp45" "251"
"4" "ann_gm.ts_Amon_ACCESS1-3.rcp85" "251"
"5" "ann_gm.ts_Amon_bcc-csm1-1.rcp26" "458"
"6" "ann_gm.ts_Amon_bcc-csm1-1.rcp45" "458"
"7" "ann_gm.ts_Amon_bcc-csm1-1.rcp60" "258"
"8" "ann_gm.ts_Amon_bcc-csm1-1.rcp85" "458"
"9" "ann_gm.ts_Amon_bcc-csm1-1-m.rcp26" "258"
"10" "ann_gm.ts_Amon_bcc-csm1-1-m.rcp45" "258"
"11" "ann_gm.ts_Amon_bcc-csm1-1-m.rcp60" "258"
"12" "ann_gm.ts_Amon_bcc-csm1-1-m.rcp85" "258"
"13" "ann_gm.ts_Amon_BNU-ESM.rcp26" "251"
"14" "ann_gm.ts_Amon_BNU-ESM.rcp45" "251"
"15" "ann_gm.ts_Amon_BNU-ESM.rcp85" "251"
"16" "ann_gm.ts_Amon_CanCM4.rcp45" "75"
"17" "ann_gm.ts_Amon_CanESM2.rcp26" "451"
"18" "ann_gm.ts_Amon_CanESM2.rcp45" "451"
"19" "ann_gm.ts_Amon_CCSM4.rcp26" "547"
"20" "ann_gm.ts_Amon_CCSM4.rcp45" "546"
"21" "ann_gm.ts_Amon_CCSM4.rcp60" "547"
"22" "ann_gm.ts_Amon_CCSM4.rcp85" "451"
"23" "ann_gm.ts_Amon_CESM1-BGC.rcp45" "251"
"24" "ann_gm.ts_Amon_CESM1-BGC.rcp85" "251"
"25" "ann_gm.ts_Amon_CESM1-CAM5.rcp26" "451"
"26" "ann_gm.ts_Amon_CESM1-CAM5.rcp45" "451"
"27" "ann_gm.ts_Amon_CESM1-CAM5.rcp60" "451"
"28" "ann_gm.ts_Amon_CESM1-CAM5.rcp85" "251"
"29" "ann_gm.ts_Amon_CMCC-CESM.rcp85" "0"
"30" "ann_gm.ts_Amon_CMCC-CM.rcp45" "0"
"31" "ann_gm.ts_Amon_CMCC-CM.rcp85" "0"
"32" "ann_gm.ts_Amon_CMCC-CMS.rcp45" "0"
"33" "ann_gm.ts_Amon_CMCC-CMS.rcp85" "0"
"34" "ann_gm.ts_Amon_CNRM-CM5.rcp26" "0"
"35" "ann_gm.ts_Amon_CNRM-CM5.rcp45" "0"
"36" "ann_gm.ts_Amon_CNRM-CM5.rcp85" "0"
"37" "ann_gm.ts_Amon_CSIRO-Mk3-6-0.rcp26" "251"
"38" "ann_gm.ts_Amon_CSIRO-Mk3-6-0.rcp45" "451"
"39" "ann_gm.ts_Amon_CSIRO-Mk3-6-0.rcp60" "251"
"40" "ann_gm.ts_Amon_CSIRO-Mk3-6-0.rcp85" "451"
"41" "ann_gm.ts_Amon_FGOALS-g2.rcp26" "0"
"42" "ann_gm.ts_Amon_FGOALS-g2.rcp45" "0"
"43" "ann_gm.ts_Amon_FGOALS-g2.rcp85" "0"
"44" "ann_gm.ts_Amon_FIO-ESM.rcp26" "251"
"45" "ann_gm.ts_Amon_FIO-ESM.rcp45" "251"
"46" "ann_gm.ts_Amon_FIO-ESM.rcp60" "251"
"47" "ann_gm.ts_Amon_FIO-ESM.rcp85" "251"
"48" "ann_gm.ts_Amon_GFDL-CM3.rcp26" "0"
"49" "ann_gm.ts_Amon_GFDL-CM3.rcp45" "0"
"50" "ann_gm.ts_Amon_GFDL-CM3.rcp85" "0"
"51" "ann_gm.ts_Amon_GFDL-ESM2G.rcp26" "0"
"52" "ann_gm.ts_Amon_GFDL-ESM2G.rcp45" "0"
"53" "ann_gm.ts_Amon_GFDL-ESM2G.rcp60" "0"
"54" "ann_gm.ts_Amon_GFDL-ESM2G.rcp85" "0"
"55" "ann_gm.ts_Amon_GFDL-ESM2M.rcp26" "0"
"56" "ann_gm.ts_Amon_GFDL-ESM2M.rcp45" "0"
"57" "ann_gm.ts_Amon_GFDL-ESM2M.rcp60" "0"
"58" "ann_gm.ts_Amon_GFDL-ESM2M.rcp85" "0"
"59" "ann_gm.ts_Amon_GISS-E2-H.rcp26" "0"
"60" "ann_gm.ts_Amon_GISS-E2-H.rcp45" "0"
"61" "ann_gm.ts_Amon_GISS-E2-H.rcp60" "0"
"62" "ann_gm.ts_Amon_GISS-E2-H.rcp85" "0"
"63" "ann_gm.ts_Amon_GISS-E2-H-CC.rcp45" "0"
"64" "ann_gm.ts_Amon_GISS-E2-H-CC.rcp85" "0"
"65" "ann_gm.ts_Amon_GISS-E2-R.rcp26" "0"
"66" "ann_gm.ts_Amon_GISS-E2-R.rcp45" "0"
"67" "ann_gm.ts_Amon_GISS-E2-R.rcp60" "0"
"68" "ann_gm.ts_Amon_GISS-E2-R.rcp85" "0"
"69" "ann_gm.ts_Amon_HadCM3.rcp45" "0"
"70" "ann_gm.ts_Amon_HadGEM2-AO.rcp26" "241"
"71" "ann_gm.ts_Amon_HadGEM2-AO.rcp45" "241"
"72" "ann_gm.ts_Amon_HadGEM2-AO.rcp60" "241"
"73" "ann_gm.ts_Amon_HadGEM2-AO.rcp85" "240"
"74" "ann_gm.ts_Amon_HadGEM2-CC.rcp45" "0"
"75" "ann_gm.ts_Amon_HadGEM2-CC.rcp85" "0"
"76" "ann_gm.ts_Amon_HadGEM2-ES.rcp45" "0"
"77" "ann_gm.ts_Amon_HadGEM2-ES.rcp60" "0"
"78" "ann_gm.ts_Amon_HadGEM2-ES.rcp85" "0"
"79" "ann_gm.ts_Amon_inmcm4.rcp45" "251"
"80" "ann_gm.ts_Amon_inmcm4.rcp85" "251"
"81" "ann_gm.ts_Amon_IPSL-CM5A-LR.rcp26" "451"
"82" "ann_gm.ts_Amon_IPSL-CM5A-LR.rcp45" "451"
"83" "ann_gm.ts_Amon_IPSL-CM5A-LR.rcp60" "251"
"84" "ann_gm.ts_Amon_IPSL-CM5A-LR.rcp85" "451"
"85" "ann_gm.ts_Amon_IPSL-CM5A-MR.rcp26" "251"
"86" "ann_gm.ts_Amon_IPSL-CM5A-MR.rcp45" "451"
"87" "ann_gm.ts_Amon_IPSL-CM5A-MR.rcp60" "251"
"88" "ann_gm.ts_Amon_IPSL-CM5A-MR.rcp85" "251"
"89" "ann_gm.ts_Amon_IPSL-CM5B-LR.rcp45" "251"
"90" "ann_gm.ts_Amon_IPSL-CM5B-LR.rcp85" "251"
"91" "ann_gm.ts_Amon_MIROC4h.rcp45" "0"
"92" "ann_gm.ts_Amon_MIROC5.rcp26" "458"
"93" "ann_gm.ts_Amon_MIROC5.rcp45" "258"
"94" "ann_gm.ts_Amon_MIROC5.rcp60" "258"
"95" "ann_gm.ts_Amon_MIROC5.rcp85" "258"
"96" "ann_gm.ts_Amon_MIROC-ESM.rcp26" "251"
"97" "ann_gm.ts_Amon_MIROC-ESM.rcp45" "451"
"98" "ann_gm.ts_Amon_MIROC-ESM.rcp60" "251"
"99" "ann_gm.ts_Amon_MIROC-ESM.rcp85" "251"
"100" "ann_gm.ts_Amon_MIROC-ESM-CHEM.rcp26" "251"
"101" "ann_gm.ts_Amon_MIROC-ESM-CHEM.rcp45" "251"
"102" "ann_gm.ts_Amon_MIROC-ESM-CHEM.rcp60" "251"
"103" "ann_gm.ts_Amon_MIROC-ESM-CHEM.rcp85" "251"
"104" "ann_gm.ts_Amon_MPI-ESM-LR.rcp26" "451"
"105" "ann_gm.ts_Amon_MPI-ESM-LR.rcp45" "451"
"106" "ann_gm.ts_Amon_MPI-ESM-LR.rcp85" "451"
"107" "ann_gm.ts_Amon_MPI-ESM-MR.rcp26" "251"
"108" "ann_gm.ts_Amon_MPI-ESM-MR.rcp45" "251"
"109" "ann_gm.ts_Amon_MPI-ESM-MR.rcp85" "251"
"110" "ann_gm.ts_Amon_MRI-CGCM3.rcp26" "251"
"111" "ann_gm.ts_Amon_MRI-CGCM3.rcp45" "251"
"112" "ann_gm.ts_Amon_MRI-CGCM3.rcp60" "251"
"113" "ann_gm.ts_Amon_MRI-CGCM3.rcp85" "251"
"114" "ann_gm.ts_Amon_MRI-ESM1.rcp85" "250"
"115" "ann_gm.ts_Amon_NorESM1-M.rcp26" "251"
"116" "ann_gm.ts_Amon_NorESM1-M.rcp45" "451"
"117" "ann_gm.ts_Amon_NorESM1-M.rcp60" "251"
"118" "ann_gm.ts_Amon_NorESM1-M.rcp85" "251"
"119" "ann_gm.ts_Amon_NorESM1-ME.rcp26" "252"
"120" "ann_gm.ts_Amon_NorESM1-ME.rcp45" "253"
"121" "ann_gm.ts_Amon_NorESM1-ME.rcp60" "252"
"122" "ann_gm.ts_Amon_NorESM1-ME.rcp85" "251"
