"AA1" "THR"
"1" "ann_gm.ts_Anom_ACCESS1-0.rcp45" "2019"
"2" "ann_gm.ts_Anom_ACCESS1-0.rcp85" "2022"
"3" "ann_gm.ts_Anom_ACCESS1-3.rcp45" "2025"
"4" "ann_gm.ts_Anom_ACCESS1-3.rcp85" "2022"
"5" "ann_gm.ts_Anom_bcc-csm1-1.piControl" NA
"6" "ann_gm.ts_Anom_bcc-csm1-1.rcp26" "2023"
"7" "ann_gm.ts_Anom_bcc-csm1-1.rcp45" "2021"
"8" "ann_gm.ts_Anom_bcc-csm1-1.rcp60" "2026"
"9" "ann_gm.ts_Anom_bcc-csm1-1.rcp85" "2018"
"10" "ann_gm.ts_Anom_bcc-csm1-1-m.rcp26" "2015"
"11" "ann_gm.ts_Anom_bcc-csm1-1-m.rcp45" "2013"
"12" "ann_gm.ts_Anom_bcc-csm1-1-m.rcp60" "2013"
"13" "ann_gm.ts_Anom_bcc-csm1-1-m.rcp85" "2015"
"14" "ann_gm.ts_Anom_BNU-ESM.rcp26" "2013"
"15" "ann_gm.ts_Anom_BNU-ESM.rcp45" "2006"
"16" "ann_gm.ts_Anom_BNU-ESM.rcp85" "2009"
"17" "ann_gm.ts_Anom_CCSM4.rcp26" "2021"
"18" "ann_gm.ts_Anom_CCSM4.rcp45" "2024"
"19" "ann_gm.ts_Anom_CCSM4.rcp60" "2021"
"20" "ann_gm.ts_Anom_CCSM4.rcp85" "2018"
"21" "ann_gm.ts_Anom_CESM1-BGC.rcp45" "2022"
"22" "ann_gm.ts_Anom_CESM1-BGC.rcp85" "2018"
"23" "ann_gm.ts_Anom_CESM1-CAM5.rcp26" "2020"
"24" "ann_gm.ts_Anom_CESM1-CAM5.rcp45" "2024"
"25" "ann_gm.ts_Anom_CESM1-CAM5.rcp60" "2027"
"26" "ann_gm.ts_Anom_CESM1-CAM5.rcp85" "2020"
"27" "ann_gm.ts_Anom_CMCC-CESM.rcp85" NA
"28" "ann_gm.ts_Anom_CMCC-CM.rcp45" NA
"29" "ann_gm.ts_Anom_CMCC-CM.rcp85" NA
"30" "ann_gm.ts_Anom_CMCC-CMS.rcp45" NA
"31" "ann_gm.ts_Anom_CMCC-CMS.rcp85" NA
"32" "ann_gm.ts_Anom_CNRM-CM5.piControl" NA
"33" "ann_gm.ts_Anom_CNRM-CM5.rcp26" NA
"34" "ann_gm.ts_Anom_CNRM-CM5.rcp45" NA
"35" "ann_gm.ts_Anom_CNRM-CM5.rcp85" NA
"36" "ann_gm.ts_Anom_CSIRO-Mk3-6-0.piControl" NA
"37" "ann_gm.ts_Anom_CSIRO-Mk3-6-0.rcp26" "2022"
"38" "ann_gm.ts_Anom_CSIRO-Mk3-6-0.rcp45" "2025"
"39" "ann_gm.ts_Anom_CSIRO-Mk3-6-0.rcp60" "2037"
"40" "ann_gm.ts_Anom_CSIRO-Mk3-6-0.rcp85" "2029"
"41" "ann_gm.ts_Anom_FGOALS-g2.rcp26" NA
"42" "ann_gm.ts_Anom_FGOALS-g2.rcp45" NA
"43" "ann_gm.ts_Anom_FGOALS-g2.rcp85" NA
"44" "ann_gm.ts_Anom_FIO-ESM.rcp26" NA
"45" "ann_gm.ts_Anom_FIO-ESM.rcp45" "2032"
"46" "ann_gm.ts_Anom_FIO-ESM.rcp60" "2032"
"47" "ann_gm.ts_Anom_FIO-ESM.rcp85" "2028"
"48" "ann_gm.ts_Anom_GFDL-CM3.rcp26" NA
"49" "ann_gm.ts_Anom_GFDL-CM3.rcp45" NA
"50" "ann_gm.ts_Anom_GFDL-CM3.rcp85" NA
"51" "ann_gm.ts_Anom_GFDL-ESM2G.rcp26" NA
"52" "ann_gm.ts_Anom_GFDL-ESM2G.rcp45" NA
"53" "ann_gm.ts_Anom_GFDL-ESM2G.rcp60" NA
"54" "ann_gm.ts_Anom_GFDL-ESM2G.rcp85" NA
"55" "ann_gm.ts_Anom_GFDL-ESM2M.rcp26" NA
"56" "ann_gm.ts_Anom_GFDL-ESM2M.rcp45" NA
"57" "ann_gm.ts_Anom_GFDL-ESM2M.rcp60" NA
"58" "ann_gm.ts_Anom_GFDL-ESM2M.rcp85" NA
"59" "ann_gm.ts_Anom_GISS-E2-H.rcp26" NA
"60" "ann_gm.ts_Anom_GISS-E2-H.rcp45" NA
"61" "ann_gm.ts_Anom_GISS-E2-H.rcp60" NA
"62" "ann_gm.ts_Anom_GISS-E2-H.rcp85" NA
"63" "ann_gm.ts_Anom_GISS-E2-H-CC.rcp45" NA
"64" "ann_gm.ts_Anom_GISS-E2-H-CC.rcp85" NA
"65" "ann_gm.ts_Anom_GISS-E2-R.rcp26" NA
"66" "ann_gm.ts_Anom_GISS-E2-R.rcp45" NA
"67" "ann_gm.ts_Anom_GISS-E2-R.rcp60" NA
"68" "ann_gm.ts_Anom_GISS-E2-R.rcp85" NA
"69" "ann_gm.ts_Anom_HadCM3.rcp45" NA
"70" "ann_gm.ts_Anom_HadGEM2-AO.rcp26" "2029"
"71" "ann_gm.ts_Anom_HadGEM2-AO.rcp45" "2012"
"72" "ann_gm.ts_Anom_HadGEM2-AO.rcp60" "2033"
"73" "ann_gm.ts_Anom_HadGEM2-AO.rcp85" "2024"
"74" "ann_gm.ts_Anom_HadGEM2-CC.piControl" NA
"75" "ann_gm.ts_Anom_HadGEM2-CC.rcp45" NA
"76" "ann_gm.ts_Anom_HadGEM2-CC.rcp85" NA
"77" "ann_gm.ts_Anom_HadGEM2-ES.rcp45" NA
"78" "ann_gm.ts_Anom_HadGEM2-ES.rcp60" NA
"79" "ann_gm.ts_Anom_HadGEM2-ES.rcp85" NA
"80" "ann_gm.ts_Anom_inmcm4.rcp45" "2060"
"81" "ann_gm.ts_Anom_inmcm4.rcp85" "2044"
"82" "ann_gm.ts_Anom_IPSL-CM5A-LR.rcp26" "2016"
"83" "ann_gm.ts_Anom_IPSL-CM5A-LR.rcp45" "2014"
"84" "ann_gm.ts_Anom_IPSL-CM5A-LR.rcp60" "2014"
"85" "ann_gm.ts_Anom_IPSL-CM5A-LR.rcp85" "2010"
"86" "ann_gm.ts_Anom_IPSL-CM5A-MR.rcp26" "2012"
"87" "ann_gm.ts_Anom_IPSL-CM5A-MR.rcp45" "2019"
"88" "ann_gm.ts_Anom_IPSL-CM5A-MR.rcp60" "2015"
"89" "ann_gm.ts_Anom_IPSL-CM5A-MR.rcp85" "2016"
"90" "ann_gm.ts_Anom_IPSL-CM5B-LR.piControl" NA
"91" "ann_gm.ts_Anom_IPSL-CM5B-LR.rcp45" "2034"
"92" "ann_gm.ts_Anom_IPSL-CM5B-LR.rcp85" "2027"
"93" "ann_gm.ts_Anom_MIROC4h.rcp45" NA
"94" "ann_gm.ts_Anom_MIROC5.rcp26" "2015"
"95" "ann_gm.ts_Anom_MIROC5.rcp45" "2015"
"96" "ann_gm.ts_Anom_MIROC5.rcp60" "2022"
"97" "ann_gm.ts_Anom_MIROC5.rcp85" "2014"
"98" "ann_gm.ts_Anom_MIROC-ESM.piControl" NA
"99" "ann_gm.ts_Anom_MIROC-ESM.rcp26" "2021"
"100" "ann_gm.ts_Anom_MIROC-ESM.rcp45" "2021"
"101" "ann_gm.ts_Anom_MIROC-ESM.rcp60" "2017"
"102" "ann_gm.ts_Anom_MIROC-ESM.rcp85" "2019"
"103" "ann_gm.ts_Anom_MIROC-ESM-CHEM.rcp26" "2016"
"104" "ann_gm.ts_Anom_MIROC-ESM-CHEM.rcp45" "2024"
"105" "ann_gm.ts_Anom_MIROC-ESM-CHEM.rcp60" "2018"
"106" "ann_gm.ts_Anom_MIROC-ESM-CHEM.rcp85" "2019"
"107" "ann_gm.ts_Anom_MPI-ESM-LR.rcp26" "2027"
"108" "ann_gm.ts_Anom_MPI-ESM-LR.rcp45" "2029"
"109" "ann_gm.ts_Anom_MPI-ESM-LR.rcp85" "2014"
"110" "ann_gm.ts_Anom_MPI-ESM-MR.rcp26" "2025"
"111" "ann_gm.ts_Anom_MPI-ESM-MR.rcp45" "2026"
"112" "ann_gm.ts_Anom_MPI-ESM-MR.rcp85" "2017"
"113" "ann_gm.ts_Anom_MPI-ESM-P.piControl" NA
"114" "ann_gm.ts_Anom_MRI-CGCM3.piControl" NA
"115" "ann_gm.ts_Anom_MRI-CGCM3.rcp26" "2070"
"116" "ann_gm.ts_Anom_MRI-CGCM3.rcp45" "2047"
"117" "ann_gm.ts_Anom_MRI-CGCM3.rcp60" "2053"
"118" "ann_gm.ts_Anom_MRI-CGCM3.rcp85" "2039"
"119" "ann_gm.ts_Anom_MRI-ESM1.rcp85" "2033"
"120" "ann_gm.ts_Anom_NorESM1-M.rcp26" "2030"
"121" "ann_gm.ts_Anom_NorESM1-M.rcp45" "2033"
"122" "ann_gm.ts_Anom_NorESM1-M.rcp60" "2037"
"123" "ann_gm.ts_Anom_NorESM1-M.rcp85" "2027"
"124" "ann_gm.ts_Anom_NorESM1-ME.rcp26" "2031"
"125" "ann_gm.ts_Anom_NorESM1-ME.rcp45" "2028"
"126" "ann_gm.ts_Anom_NorESM1-ME.rcp60" "2032"
"127" "ann_gm.ts_Anom_NorESM1-ME.rcp85" "2028"
