-0.39 0.0
-0.38 0.0
-0.37 0.0
-0.36 0.0
-0.35 0.0
-0.34 0.0
-0.33 0.0
-0.32 0.0
-0.31 0.0
-0.3 0.0
-0.29 0.0
-0.28 0.0
-0.27 0.0
-0.26 0.0
-0.25 0.0
-0.24 0.0
-0.23 0.0
-0.22 0.0
-0.21 0.0
-0.2 0.0
-0.19 0.0
-0.18 0.0
-0.17 0.0
-0.16 0.0
-0.15 0.0
-0.14 0.0
-0.13 0.0
-0.12 0.0
-0.11 0.0
-0.1 0.0
-0.09 0.000666666666667
-0.08 0.00261904761905
-0.07 0.00614285714286
-0.06 0.00838095238095
-0.05 0.011
-0.04 0.0173333333333
-0.03 0.0346428571429
-0.02 0.0606428571429
-0.01 0.0794444444444
0.0 0.108063492063
0.01 0.230936507937
0.02 0.269865079365
0.03 0.314476190476
0.04 0.369055555556
0.05 0.428293650794
0.06 0.464936507937
0.07 0.498150793651
0.08 0.527785714286
0.09 0.563333333333
0.1 0.599857142857
0.11 0.635833333333
0.12 0.67669047619
0.13 0.732261904762
0.14 0.766071428571
0.15 0.797619047619
0.16 0.817619047619
0.17 0.84
0.18 0.86380952381
0.19 0.899523809524
0.2 0.922857142857
0.21 0.942380952381
0.22 0.957619047619
0.23 0.961904761905
0.24 0.970476190476
0.25 0.986666666667
0.26 0.99619047619
0.27 1.0
0.28 1.0
0.29 1.0
0.3 1.0
0.31 1.0
0.32 1.0
0.33 1.0
0.34 1.0
0.35 1.0
0.36 1.0
0.37 1.0
0.38 1.0
0.39 1.0
0.4 1.0
